{
  "project_info": {
    "project_number": "416124960884",
    "firebase_url": "https://wabcofcm.firebaseio.com",
    "project_id": "wabcofcm",
    "storage_bucket": "wabcofcm.appspot.com"
  },
  "client": [
    {
      "client_info": {
        "mobilesdk_app_id": "1:416124960884:android:2bfe7de5f2106dbb",
        "android_client_info": {
          "package_name": "com.wabco.brainmagic.wabco.catalogue"
        }
      },
      "oauth_client": [
        {
          "client_id": "416124960884-hmq5sso8cpo1hnnsoe8pgh4dq0je3aj3.apps.googleusercontent.com",
          "client_type": 1,
          "android_info": {
            "package_name": "com.wabco.brainmagic.wabco.catalogue",
            "certificate_hash": "d340ceeb19777559446e6b3fe29622548fa12b53"
          }
        },
        {
          "client_id": "416124960884-6lh4t2mitgilr98aeouat05l3rjs8okd.apps.googleusercontent.com",
          "client_type": 3
        }
      ],
      "api_key": [
        {
          "current_key": "AIzaSyDxBR5p3lP0MXwYk3blBNLHBcBf2sikqoE"
        }
      ],
      "services": {
        "analytics_service": {
          "status": 1
        },
        "appinvite_service": {
          "status": 2,
          "other_platform_oauth_client": [
            {
              "client_id": "416124960884-6lh4t2mitgilr98aeouat05l3rjs8okd.apps.googleusercontent.com",
              "client_type": 3
            }
          ]
        },
        "ads_service": {
          "status": 2
        }
      }
    },
    {
      "client_info": {
        "mobilesdk_app_id": "1:416124960884:android:74b65ec73a5565e3",
        "android_client_info": {
          "package_name": "com.wabco.brainmagic.wabco.catalogue.demo"
        }
      },
      "oauth_client": [
        {
          "client_id": "416124960884-u7bctc9qikfi1q223svq45f569a7mfbg.apps.googleusercontent.com",
          "client_type": 1,
          "android_info": {
            "package_name": "com.wabco.brainmagic.wabco.catalogue.demo",
            "certificate_hash": "9eb4ce74fbe403d74232fcb53afd553f23ee1ac3"
          }
        },
        {
          "client_id": "416124960884-6lh4t2mitgilr98aeouat05l3rjs8okd.apps.googleusercontent.com",
          "client_type": 3
        }
      ],
      "api_key": [
        {
          "current_key": "AIzaSyDxBR5p3lP0MXwYk3blBNLHBcBf2sikqoE"
        }
      ],
      "services": {
        "analytics_service": {
          "status": 1
        },
        "appinvite_service": {
          "status": 2,
          "other_platform_oauth_client": [
            {
              "client_id": "416124960884-6lh4t2mitgilr98aeouat05l3rjs8okd.apps.googleusercontent.com",
              "client_type": 3
            }
          ]
        },
        "ads_service": {
          "status": 2
        }
      }
    },
    {
      "client_info": {
        "mobilesdk_app_id": "1:416124960884:android:c39a75130d7a0426",
        "android_client_info": {
          "package_name": "com.wabco.brainmagic.wabco.demo"
        }
      },
      "oauth_client": [
        {
          "client_id": "416124960884-6lh4t2mitgilr98aeouat05l3rjs8okd.apps.googleusercontent.com",
          "client_type": 3
        }
      ],
      "api_key": [
        {
          "current_key": "AIzaSyDxBR5p3lP0MXwYk3blBNLHBcBf2sikqoE"
        }
      ],
      "services": {
        "analytics_service": {
          "status": 1
        },
        "appinvite_service": {
          "status": 1,
          "other_platform_oauth_client": []
        },
        "ads_service": {
          "status": 2
        }
      }
    }
  ],
  "configuration_version": "1"
}